<?xml version="1.0" encoding="utf-8"?>
<!-- Generator: Adobe Illustrator 23.0.1, SVG Export Plug-In . SVG Version: 6.00 Build 0)  -->
<svg version="1.1" id="Calque_1" xmlns="http://www.w3.org/2000/svg" xmlns:xlink="http://www.w3.org/1999/xlink" x="0px" y="0px"
	 viewBox="0 0 24 24" style="enable-background:new 0 0 24 24;" xml:space="preserve">
<style type="text/css">
	.st0{fill:#FFFFFF;}
	.st1{fill:#D3232D;}
</style>
<path class="st0" d="M12,2C6.5,2,2,6.5,2,12s4.5,10,10,10s10-4.5,10-10S17.5,2,12,2z M12,21.2c-5.1,0-9.2-4.1-9.2-9.2
	S6.9,2.8,12,2.8s9.2,4.1,9.2,9.2S17.1,21.2,12,21.2z"/>
<path class="st1" d="M15,12.9l-4.9,2.9C9.5,16,8.9,15.6,8.9,15V9.3c0-0.6,0.7-1,1.2-0.7l4.9,2.9C15.5,11.8,15.5,12.6,15,12.9z"/>
</svg>
